Using R for Wildlife Telemetry Data Analysis - Introduction to Spatial Data with R
…
mapview

mapview(airports, zcol = "NUMBER_OF_RUNWAYS")

Structure of an sf object

airports

Simple feature collection with 455 features and 5 fields
Geometry type: POINT
Dimension:     XY
Bounding box:  xmin: 406543.7 ymin: 367957.6 xmax: 1796645 ymax: 1689146
Projected CRS: NAD83 / BC Albers
# A tibble: 455 × 6
   AIRPORT_NAME                   IATA_CODE LOCALITY ELEVATION NUMBER_OF_RUNWAYS
   <chr>                          <chr>     <chr>        <dbl>             <int>
 1 Terrace (Northwest Regional) … <NA>      Terrace     217.                   2
 2 Victoria Harbour (Camel Point… <NA>      Victoria      4.57                 0
 3 Victoria Inner Harbour Airpor… YWH       Victoria      0                    0
 4 Victoria Harbour (Shoal Point… <NA>      Victoria      3.05                 0
 5 Victoria (Royal Jubilee Hospi… <NA>      Saanich      15.6                  0
 6 Victoria (General Hospital) H… <NA>      View Ro…     15.8                  0
 7 Victoria (BC Hydro) Heliport   <NA>      Saanich      12.2                  0
 8 San Juan Point (Coast Guard) … <NA>      Port Re…      7.62                 0
 9 Shawnigan Lake Water Aerodrome <NA>      Shawnig…      0                    0
10 Victoria International Airport YYJ       North S…     19.5                  3
# ℹ 445 more rows
# ℹ 1 more variable: geom <POINT [m]>
…
